{
  "status": {
    "code": 0,
    "message": "success"
  },
  "data": {
    "data": [
      {
        "id": 36014,
        "author": {
          "fullName": "SalmanAlfarisy5",
          "profilePicture": "https://api.duniagames.co.id/api/user/upload/image/1571758061706610739.jpeg",
          "userName": "Salman Alfarisy"
        },
        "image": "https://api.duniagames.co.id/api/content/upload/file/13539270641724679393.jpg",
        "imageHighlight": null,
        "category": {
          "categoryId": 27,
          "slug": "mobile-legends",
          "image": "https://api.duniagames.co.id/api/content/upload/file/5ce46a08-e3f9-4b89-a55d-99e212db338d.png",
          "orderNumber": 2,
          "translation": {
            "name": "Mobile Legends",
            "locale": "en"
          }
        },
        "publishedDate": "2024-08-28 15:00:00",
        "title": "Pengertian Snowball, Istilah Populer di Mobile Legends",
        "status": "Published",
        "slug": "pengertian-snowball",
        "content": "Inilah pengertian snowball, istilah popular Mobile Legends yang sering diucapkan para gamer.",
        "highlight": 0,
        "type": "article",
        "isInfluencer": 0,
        "isInfluencerHighlight": 0,
        "rating": null,
        "eventStartDate": null,
        "eventEndDate": null
      },
      {
        "id": 36074,
        "author": {
          "fullName": "RidwanH",
          "profilePicture": "https://api.duniagames.co.id/api/user/upload/image/6235137151579688923.jpg",
          "userName": "Ridwan Hidayah"
        },
        "image": "https://api.duniagames.co.id/api/content/upload/file/596664731724831873.jpg",
        "imageHighlight": "https://api.duniagames.co.id/api/content/upload/file/3051971181724831874.jpg",
        "category": {
          "categoryId": 2,
          "slug": "games",
          "image": "https://api.duniagames.co.id/api/content/upload/file/f02a526b-d4e8-4fe8-a61c-ce7ecbf22e6c.png",
          "orderNumber": 1,
          "translation": {
            "name": "Games",
            "locale": "en"
          }
        },
        "publishedDate": "2024-08-28 14:57:00",
        "title": "Sebelum ke Tokyo Game Show 2024, Ini Beberapa Hal yang Perlu Disiapkan!",
        "status": "Published",
        "slug": "sebelum-ke-tokyo-game-show-2024-ini-beberapa-hal-yang-perlu-disiapkan",
        "content": "Sebelum ke Tokyo Game Show 2024, siapin dulu berbagai hal ini ya!",
        "highlight": 0,
        "type": "article",
        "isInfluencer": 0,
        "isInfluencerHighlight": 0,
        "rating": null,
        "eventStartDate": null,
        "eventEndDate": null
      },
      {
        "id": 36073,
        "author": {
          "fullName": "RizkyNurcahyanto",
          "profilePicture": "https://api.duniagames.co.id/api/user/upload/image/5755773531579851723.jpg",
          "userName": "Rizky Nurcahyanto"
        },
        "image": "https://api.duniagames.co.id/api/content/upload/file/17362521911724829222.jpg",
        "imageHighlight": null,
        "category": {
          "categoryId": 4,
          "slug": "berita",
          "image": "https://api.duniagames.co.id/api/content/upload/file/20983000201631525903.jpg",
          "orderNumber": 1,
          "translation": {
            "name": "News",
            "locale": "en"
          }
        },
        "publishedDate": "2024-08-28 14:12:00",
        "title": "Rival School Kembali Hadir di Capcom Fighting Collection 2, Rilis 2025",
        "status": "Published",
        "slug": "rival-school-kembali-hadir-di-capcom-fighting-collection-2-rilis-2025",
        "content": "Capcom mengumumkan Rival School kembali hadir pada Capcom Fighting Collection 2 yang bakal rilis pada tahun depan.",
        "highlight": 0,
        "type": "article",
        "isInfluencer": 0,
        "isInfluencerHighlight": 0,
        "rating": null,
        "eventStartDate": null,
        "eventEndDate": null
      },
      {
        "id": 36013,
        "author": {
          "fullName": "SalmanAlfarisy5",
          "profilePicture": "https://api.duniagames.co.id/api/user/upload/image/1571758061706610739.jpeg",
          "userName": "Salman Alfarisy"
        },
        "image": "https://api.duniagames.co.id/api/content/upload/file/9266432601724678813.jpg",
        "imageHighlight": null,
        "category": {
          "categoryId": 27,
          "slug": "mobile-legends",
          "image": "https://api.duniagames.co.id/api/content/upload/file/5ce46a08-e3f9-4b89-a55d-99e212db338d.png",
          "orderNumber": 2,
          "translation": {
            "name": "Mobile Legends",
            "locale": "en"
          }
        },
        "publishedDate": "2024-08-28 14:00:00",
        "title": "Cara Logout Akun Mobile Legends yang Wajib Kamu Ketahui",
        "status": "Published",
        "slug": "cara-logout-akun-mobile-legends",
        "content": "Inilah cara logout akun Mobile Legends yang wajib kamu ketahui. Penasaran? Ini ulasan lengkapnya untuk kita bahas bersama-sama.",
        "highlight": 0,
        "type": "article",
        "isInfluencer": 0,
        "isInfluencerHighlight": 0,
        "rating": null,
        "eventStartDate": null,
        "eventEndDate": null
      },
      {
        "id": 36072,
        "author": {
          "fullName": "RizkyNurcahyanto",
          "profilePicture": "https://api.duniagames.co.id/api/user/upload/image/5755773531579851723.jpg",
          "userName": "Rizky Nurcahyanto"
        },
        "image": "https://api.duniagames.co.id/api/content/upload/file/6299181724828265.jpg",
        "imageHighlight": null,
        "category": {
          "categoryId": 6,
          "slug": "movie",
          "image": "https://api.duniagames.co.id/api/content/upload/file/17145059861631517772.png",
          "orderNumber": 1,
          "translation": {
            "name": "Movies",
            "locale": "en"
          }
        },
        "publishedDate": "2024-08-28 13:57:00",
        "title": "Keanu Reeves Gabung di Sonic the Hedgehog 3, Perankan Shadow",
        "status": "Published",
        "slug": "keanu-reeves-gabung-di-sonic-the-hedgehog-3-perankan-shadow",
        "content": "Lewat trailer baru Sonic the Hedgehog 3, pelrihatkan Keanu Reeves berperan sebagai Shadow.",
        "highlight": 0,
        "type": "article",
        "isInfluencer": 0,
        "isInfluencerHighlight": 0,
        "rating": null,
        "eventStartDate": null,
        "eventEndDate": null
      },
      {
        "id": 36001,
        "author": {
          "fullName": "TonyMcAlpine",
          "profilePicture": "https://api.duniagames.co.id/api/user/upload/image/18347285491707208797.jpg",
          "userName": "Imadudin R A"
        },
        "image": "https://api.duniagames.co.id/api/content/upload/file/8801823531724664236.jpg",
        "imageHighlight": null,
        "category": {
          "categoryId": 7,
          "slug": "anime-manga",
          "image": "https://api.duniagames.co.id/api/content/upload/file/19648255751631517642.png",
          "orderNumber": 1,
          "translation": {
            "name": "Anime & Manga",
            "locale": "en"
          }
        },
        "publishedDate": "2024-08-28 13:00:00",
        "title": "7 Perbedaan Manga dan Manhwa yang Paling Mencolok",
        "status": "Published",
        "slug": "perbedaan-manga-dan-manhwa",
        "content": "Inilah perbedaan manga dan manhwa yang wajib diketahui. Penasaran apa saja perbedaannya? Ini ulasan lengkapnya untuk dibahas.",
        "highlight": 0,
        "type": "article",
        "isInfluencer": 0,
        "isInfluencerHighlight": 0,
        "rating": null,
        "eventStartDate": null,
        "eventEndDate": null
      },
      {
        "id": 36071,
        "author": {
          "fullName": "fiqrifuaddy",
          "profilePicture": "https://api.duniagames.co.id/api/user/upload/profile/default.png",
          "userName": null
        },
        "image": "https://api.duniagames.co.id/api/content/upload/file/12801798441724823554.jpg",
        "imageHighlight": null,
        "category": {
          "categoryId": 27,
          "slug": "mobile-legends",
          "image": "https://api.duniagames.co.id/api/content/upload/file/5ce46a08-e3f9-4b89-a55d-99e212db338d.png",
          "orderNumber": 2,
          "translation": {
            "name": "Mobile Legends",
            "locale": "en"
          }
        },
        "publishedDate": "2024-08-28 12:38:00",
        "title": "Ini Sosok Teman Dekat Nnael di AE, ONIC dan Geek Fam, Ada Baloyskie?",
        "status": "Published",
        "slug": "ini-sosok-teman-dekat-nnael-di-ae-onic-dan-geek-fam-ada-baloyskie",
        "content": "Nnael ungkap sosok teman dekatnya di tim Alter Ego, Onic, hingga Geek Fam. Siapa saja mereka?",
        "highlight": 0,
        "type": "article",
        "isInfluencer": 0,
        "isInfluencerHighlight": 0,
        "rating": null,
        "eventStartDate": null,
        "eventEndDate": null
      },
      {
        "id": 35995,
        "author": {
          "fullName": "Netama",
          "profilePicture": "https://api.duniagames.co.id/api/user/upload/image/8876303771706674910.jpg",
          "userName": "Muhamad Firmansyah"
        },
        "image": "https://api.duniagames.co.id/api/content/upload/file/4167090611724658239.jpg",
        "imageHighlight": null,
        "category": {
          "categoryId": 2,
          "slug": "games",
          "image": "https://api.duniagames.co.id/api/content/upload/file/f02a526b-d4e8-4fe8-a61c-ce7ecbf22e6c.png",
          "orderNumber": 1,
          "translation": {
            "name": "Games",
            "locale": "en"
          }
        },
        "publishedDate": "2024-08-28 12:00:00",
        "title": "Daftar Kode Untitled Boxing Game Terbaru 2024 Beserta Cara Redeem",
        "status": "Published",
        "slug": "kode-untitled-boxing-game-paling-update",
        "content": "Berikut daftar code Untitled Boxing Game terbaru di bulan Agustus 2024, dapatkan hadiah paling update, dan buruan redeem sebelum kadaluarsa!",
        "highlight": 0,
        "type": "article",
        "isInfluencer": 0,
        "isInfluencerHighlight": 0,
        "rating": null,
        "eventStartDate": null,
        "eventEndDate": null
      },
      {
        "id": 36070,
        "author": {
          "fullName": "RidwanH",
          "profilePicture": "https://api.duniagames.co.id/api/user/upload/image/6235137151579688923.jpg",
          "userName": "Ridwan Hidayah"
        },
        "image": "https://api.duniagames.co.id/api/content/upload/file/17970324551724821101.jpg",
        "imageHighlight": "https://api.duniagames.co.id/api/content/upload/file/939747891724821102.jpg",
        "category": {
          "categoryId": 2,
          "slug": "games",
          "image": "https://api.duniagames.co.id/api/content/upload/file/f02a526b-d4e8-4fe8-a61c-ce7ecbf22e6c.png",
          "orderNumber": 1,
          "translation": {
            "name": "Games",
            "locale": "en"
          }
        },
        "publishedDate": "2024-08-28 11:57:00",
        "title": "Berbagai Hal yang Dilarang Dilakukan di Tokyo Game Show 2024!",
        "status": "Published",
        "slug": "berbagai-hal-yang-dilarang-dilakukan-di-tokyo-game-show-2024",
        "content": "Jangan sampai melakukan hal ini di Tokyo Game Show 2024 nanti ya!",
        "highlight": 0,
        "type": "article",
        "isInfluencer": 0,
        "isInfluencerHighlight": 0,
        "rating": null,
        "eventStartDate": null,
        "eventEndDate": null
      },
      {
        "id": 36069,
        "author": {
          "fullName": "RizkyNurcahyanto",
          "profilePicture": "https://api.duniagames.co.id/api/user/upload/image/5755773531579851723.jpg",
          "userName": "Rizky Nurcahyanto"
        },
        "image": "https://api.duniagames.co.id/api/content/upload/file/18791317251724820326.jpg",
        "imageHighlight": null,
        "category": {
          "categoryId": 12,
          "slug": "review",
          "image": "https://api.duniagames.co.id/api/content/upload/file/2500548401631517905.png",
          "orderNumber": 1,
          "translation": {
            "name": "Review",
            "locale": "en"
          }
        },
        "publishedDate": "2024-08-28 11:44:00",
        "title": "[REVIEW] Star Wars Outlaws (PC): Petualangan Scoundrel yang Kurang Maksimal",
        "status": "Published",
        "slug": "review-star-wars-outlaws-pc-petualangan-scoundrel-yang-kurang-maksimal",
        "content": "Berencana memainkan Star Wars Outlaws (PC)? Simak dulu ulasannya berikut ini!",
        "highlight": 0,
        "type": "article",
        "isInfluencer": 0,
        "isInfluencerHighlight": 0,
        "rating": null,
        "eventStartDate": null,
        "eventEndDate": null
      }
    ],
    "meta": {
      "pagination": {
        "total": 36958,
        "count": 10,
        "per_page": 10,
        "current_page": 1,
        "total_pages": 3696
      }
    }
  }
}
